%YAML 1.1
%TAG !u! tag:unity3d.com,2011:
--- !u!1001 &8114916930298555659
PrefabInstance:
  m_ObjectHideFlags: 0
  serializedVersion: 2
  m_Modification:
    m_TransformParent: {fileID: 0}
    m_Modifications:
    - target: {fileID: 2046363676362870566, guid: b9c52bfaaaacf5f42bbbafd19d8f5b21,
        type: 3}
      propertyPath: m_Name
      value: Ptc_EnergyBall
      objectReference: {fileID: 0}
    - target: {fileID: 5005873352589071337, guid: b9c52bfaaaacf5f42bbbafd19d8f5b21,
        type: 3}
      propertyPath: m_LocalPosition.x
      value: 680.06
      objectReference: {fileID: 0}
    - target: {fileID: 5005873352589071337, guid: b9c52bfaaaacf5f42bbbafd19d8f5b21,
        type: 3}
      propertyPath: m_LocalPosition.y
      value: 31.1
      objectReference: {fileID: 0}
    - target: {fileID: 5005873352589071337, guid: b9c52bfaaaacf5f42bbbafd19d8f5b21,
        type: 3}
      propertyPath: m_LocalPosition.z
      value: 503.27
      objectReference: {fileID: 0}
    - target: {fileID: 5005873352589071337, guid: b9c52bfaaaacf5f42bbbafd19d8f5b21,
        type: 3}
      propertyPath: m_LocalRotation.x
      value: 0
      objectReference: {fileID: 0}
    - target: {fileID: 5005873352589071337, guid: b9c52bfaaaacf5f42bbbafd19d8f5b21,
        type: 3}
      propertyPath: m_LocalRotation.y
      value: 0
      objectReference: {fileID: 0}
    - target: {fileID: 5005873352589071337, guid: b9c52bfaaaacf5f42bbbafd19d8f5b21,
        type: 3}
      propertyPath: m_LocalRotation.z
      value: 0
      objectReference: {fileID: 0}
    - target: {fileID: 5005873352589071337, guid: b9c52bfaaaacf5f42bbbafd19d8f5b21,
        type: 3}
      propertyPath: m_LocalRotation.w
      value: 1
      objectReference: {fileID: 0}
    - target: {fileID: 5005873352589071337, guid: b9c52bfaaaacf5f42bbbafd19d8f5b21,
        type: 3}
      propertyPath: m_RootOrder
      value: 0
      objectReference: {fileID: 0}
    - target: {fileID: 5005873352589071337, guid: b9c52bfaaaacf5f42bbbafd19d8f5b21,
        type: 3}
      propertyPath: m_LocalEulerAnglesHint.x
      value: 0
      objectReference: {fileID: 0}
    - target: {fileID: 5005873352589071337, guid: b9c52bfaaaacf5f42bbbafd19d8f5b21,
        type: 3}
      propertyPath: m_LocalEulerAnglesHint.y
      value: 0
      objectReference: {fileID: 0}
    - target: {fileID: 5005873352589071337, guid: b9c52bfaaaacf5f42bbbafd19d8f5b21,
        type: 3}
      propertyPath: m_LocalEulerAnglesHint.z
      value: 0
      objectReference: {fileID: 0}
    - target: {fileID: 6415550995571320987, guid: b9c52bfaaaacf5f42bbbafd19d8f5b21,
        type: 3}
      propertyPath: VelocityModule.enabled
      value: 1
      objectReference: {fileID: 0}
    - target: {fileID: 6415550995571320987, guid: b9c52bfaaaacf5f42bbbafd19d8f5b21,
        type: 3}
      propertyPath: VelocityModule.orbitalX.scalar
      value: 1
      objectReference: {fileID: 0}
    - target: {fileID: 6415550995571320987, guid: b9c52bfaaaacf5f42bbbafd19d8f5b21,
        type: 3}
      propertyPath: VelocityModule.orbitalY.scalar
      value: 1
      objectReference: {fileID: 0}
    - target: {fileID: 6415550995571320987, guid: b9c52bfaaaacf5f42bbbafd19d8f5b21,
        type: 3}
      propertyPath: VelocityModule.orbitalZ.scalar
      value: 1
      objectReference: {fileID: 0}
    - target: {fileID: 6415550995571320987, guid: b9c52bfaaaacf5f42bbbafd19d8f5b21,
        type: 3}
      propertyPath: VelocityModule.orbitalOffsetX.scalar
      value: 0
      objectReference: {fileID: 0}
    - target: {fileID: 6415550995571320987, guid: b9c52bfaaaacf5f42bbbafd19d8f5b21,
        type: 3}
      propertyPath: VelocityModule.orbitalOffsetY.scalar
      value: 0
      objectReference: {fileID: 0}
    - target: {fileID: 6415550995571320987, guid: b9c52bfaaaacf5f42bbbafd19d8f5b21,
        type: 3}
      propertyPath: VelocityModule.orbitalOffsetZ.scalar
      value: -1
      objectReference: {fileID: 0}
    - target: {fileID: 6415550995571320987, guid: b9c52bfaaaacf5f42bbbafd19d8f5b21,
        type: 3}
      propertyPath: VelocityModule.x.scalar
      value: 1
      objectReference: {fileID: 0}
    - target: {fileID: 6415550995571320987, guid: b9c52bfaaaacf5f42bbbafd19d8f5b21,
        type: 3}
      propertyPath: VelocityModule.y.scalar
      value: 1
      objectReference: {fileID: 0}
    - target: {fileID: 6415550995571320987, guid: b9c52bfaaaacf5f42bbbafd19d8f5b21,
        type: 3}
      propertyPath: VelocityModule.z.scalar
      value: 1
      objectReference: {fileID: 0}
    - target: {fileID: 6415550995571320987, guid: b9c52bfaaaacf5f42bbbafd19d8f5b21,
        type: 3}
      propertyPath: NoiseModule.enabled
      value: 1
      objectReference: {fileID: 0}
    - target: {fileID: 6415550995571320987, guid: b9c52bfaaaacf5f42bbbafd19d8f5b21,
        type: 3}
      propertyPath: NoiseModule.frequency
      value: 0.25
      objectReference: {fileID: 0}
    - target: {fileID: 6415550995571320987, guid: b9c52bfaaaacf5f42bbbafd19d8f5b21,
        type: 3}
      propertyPath: NoiseModule.strength.scalar
      value: 50
      objectReference: {fileID: 0}
    - target: {fileID: 6415550995571320987, guid: b9c52bfaaaacf5f42bbbafd19d8f5b21,
        type: 3}
      propertyPath: NoiseModule.strengthZ.scalar
      value: 50
      objectReference: {fileID: 0}
    - target: {fileID: 6415550995571320987, guid: b9c52bfaaaacf5f42bbbafd19d8f5b21,
        type: 3}
      propertyPath: NoiseModule.damping
      value: 0
      objectReference: {fileID: 0}
    - target: {fileID: 6415550995571320987, guid: b9c52bfaaaacf5f42bbbafd19d8f5b21,
        type: 3}
      propertyPath: VelocityModule.radial.scalar
      value: -50
      objectReference: {fileID: 0}
    - target: {fileID: 6415550995571320987, guid: b9c52bfaaaacf5f42bbbafd19d8f5b21,
        type: 3}
      propertyPath: VelocityModule.speedModifier.scalar
      value: 0.08
      objectReference: {fileID: 0}
    - target: {fileID: 6415550995571320987, guid: b9c52bfaaaacf5f42bbbafd19d8f5b21,
        type: 3}
      propertyPath: ClampVelocityModule.enabled
      value: 0
      objectReference: {fileID: 0}
    - target: {fileID: 6415550995571320987, guid: b9c52bfaaaacf5f42bbbafd19d8f5b21,
        type: 3}
      propertyPath: InitialModule.startSize.scalar
      value: 0.7
      objectReference: {fileID: 0}
    - target: {fileID: 6415550995571320987, guid: b9c52bfaaaacf5f42bbbafd19d8f5b21,
        type: 3}
      propertyPath: SizeModule.curve.maxCurve.m_Curve.Array.data[0].inSlope
      value: -2
      objectReference: {fileID: 0}
    - target: {fileID: 6415550995571320987, guid: b9c52bfaaaacf5f42bbbafd19d8f5b21,
        type: 3}
      propertyPath: SizeModule.curve.maxCurve.m_Curve.Array.data[0].outSlope
      value: -2
      objectReference: {fileID: 0}
    - target: {fileID: 6415550995571320987, guid: b9c52bfaaaacf5f42bbbafd19d8f5b21,
        type: 3}
      propertyPath: SizeModule.curve.maxCurve.m_Curve.Array.data[0].tangentMode
      value: 0
      objectReference: {fileID: 0}
    - target: {fileID: 6415550995571320987, guid: b9c52bfaaaacf5f42bbbafd19d8f5b21,
        type: 3}
      propertyPath: SizeModule.curve.maxCurve.m_Curve.Array.data[1].inSlope
      value: 0
      objectReference: {fileID: 0}
    - target: {fileID: 6415550995571320987, guid: b9c52bfaaaacf5f42bbbafd19d8f5b21,
        type: 3}
      propertyPath: SizeModule.curve.maxCurve.m_Curve.Array.data[1].outSlope
      value: 0
      objectReference: {fileID: 0}
    - target: {fileID: 6415550995571320987, guid: b9c52bfaaaacf5f42bbbafd19d8f5b21,
        type: 3}
      propertyPath: SizeModule.curve.maxCurve.m_Curve.Array.data[1].tangentMode
      value: 0
      objectReference: {fileID: 0}
    - target: {fileID: 6415550995571320987, guid: b9c52bfaaaacf5f42bbbafd19d8f5b21,
        type: 3}
      propertyPath: SizeModule.curve.maxCurve.m_Curve.Array.data[0].value
      value: 1
      objectReference: {fileID: 0}
    - target: {fileID: 6415550995571320987, guid: b9c52bfaaaacf5f42bbbafd19d8f5b21,
        type: 3}
      propertyPath: SizeModule.curve.maxCurve.m_Curve.Array.data[1].value
      value: 0
      objectReference: {fileID: 0}
    - target: {fileID: 6415550995571320987, guid: b9c52bfaaaacf5f42bbbafd19d8f5b21,
        type: 3}
      propertyPath: SizeModule.curve.maxCurve.m_Curve.Array.data[0].outWeight
      value: 0
      objectReference: {fileID: 0}
    - target: {fileID: 6415550995571320987, guid: b9c52bfaaaacf5f42bbbafd19d8f5b21,
        type: 3}
      propertyPath: SizeModule.curve.maxCurve.m_Curve.Array.data[1].inWeight
      value: 0
      objectReference: {fileID: 0}
    - target: {fileID: 6415550995571320987, guid: b9c52bfaaaacf5f42bbbafd19d8f5b21,
        type: 3}
      propertyPath: SizeModule.separateAxes
      value: 0
      objectReference: {fileID: 0}
    - target: {fileID: 6415550995571320987, guid: b9c52bfaaaacf5f42bbbafd19d8f5b21,
        type: 3}
      propertyPath: NoiseModule.strengthY.scalar
      value: 50
      objectReference: {fileID: 0}
    - target: {fileID: 6415550995571320987, guid: b9c52bfaaaacf5f42bbbafd19d8f5b21,
        type: 3}
      propertyPath: SizeModule.enabled
      value: 0
      objectReference: {fileID: 0}
    - target: {fileID: 6415550995571320987, guid: b9c52bfaaaacf5f42bbbafd19d8f5b21,
        type: 3}
      propertyPath: SizeBySpeedModule.enabled
      value: 0
      objectReference: {fileID: 0}
    - target: {fileID: 6415550995571320987, guid: b9c52bfaaaacf5f42bbbafd19d8f5b21,
        type: 3}
      propertyPath: ColorModule.enabled
      value: 1
      objectReference: {fileID: 0}
    - target: {fileID: 6415550995571320987, guid: b9c52bfaaaacf5f42bbbafd19d8f5b21,
        type: 3}
      propertyPath: ColorModule.gradient.maxGradient.key1.r
      value: 0
      objectReference: {fileID: 0}
    - target: {fileID: 6415550995571320987, guid: b9c52bfaaaacf5f42bbbafd19d8f5b21,
        type: 3}
      propertyPath: ColorModule.gradient.maxGradient.key1.g
      value: 1
      objectReference: {fileID: 0}
    - target: {fileID: 6415550995571320987, guid: b9c52bfaaaacf5f42bbbafd19d8f5b21,
        type: 3}
      propertyPath: ColorModule.gradient.maxGradient.key1.b
      value: 1
      objectReference: {fileID: 0}
    - target: {fileID: 6415550995571320987, guid: b9c52bfaaaacf5f42bbbafd19d8f5b21,
        type: 3}
      propertyPath: ColorModule.gradient.maxGradient.key0.g
      value: 1
      objectReference: {fileID: 0}
    - target: {fileID: 6415550995571320987, guid: b9c52bfaaaacf5f42bbbafd19d8f5b21,
        type: 3}
      propertyPath: ColorModule.gradient.maxGradient.key0.r
      value: 1
      objectReference: {fileID: 0}
    - target: {fileID: 6415550995571320987, guid: b9c52bfaaaacf5f42bbbafd19d8f5b21,
        type: 3}
      propertyPath: ColorModule.gradient.maxGradient.key0.b
      value: 0.38431373
      objectReference: {fileID: 0}
    - target: {fileID: 6415550995571320987, guid: b9c52bfaaaacf5f42bbbafd19d8f5b21,
        type: 3}
      propertyPath: ColorModule.gradient.maxGradient.ctime1
      value: 5590
      objectReference: {fileID: 0}
    - target: {fileID: 6415550995571320987, guid: b9c52bfaaaacf5f42bbbafd19d8f5b21,
        type: 3}
      propertyPath: ColorModule.gradient.maxGradient.ctime0
      value: 3470
      objectReference: {fileID: 0}
    - target: {fileID: 6415550995571320987, guid: b9c52bfaaaacf5f42bbbafd19d8f5b21,
        type: 3}
      propertyPath: ColorModule.gradient.maxGradient.key2.r
      value: 1
      objectReference: {fileID: 0}
    - target: {fileID: 6415550995571320987, guid: b9c52bfaaaacf5f42bbbafd19d8f5b21,
        type: 3}
      propertyPath: ColorModule.gradient.maxGradient.key2.g
      value: 1
      objectReference: {fileID: 0}
    - target: {fileID: 6415550995571320987, guid: b9c52bfaaaacf5f42bbbafd19d8f5b21,
        type: 3}
      propertyPath: ColorModule.gradient.maxGradient.key2.b
      value: 1
      objectReference: {fileID: 0}
    - target: {fileID: 6415550995571320987, guid: b9c52bfaaaacf5f42bbbafd19d8f5b21,
        type: 3}
      propertyPath: ColorModule.gradient.maxGradient.ctime2
      value: 16962
      objectReference: {fileID: 0}
    - target: {fileID: 6415550995571320987, guid: b9c52bfaaaacf5f42bbbafd19d8f5b21,
        type: 3}
      propertyPath: ColorModule.gradient.maxGradient.m_NumColorKeys
      value: 3
      objectReference: {fileID: 0}
    - target: {fileID: 6415550995571320987, guid: b9c52bfaaaacf5f42bbbafd19d8f5b21,
        type: 3}
      propertyPath: SizeBySpeedModule.curve.maxCurve.m_Curve.Array.data[0].value
      value: 0
      objectReference: {fileID: 0}
    - target: {fileID: 6415550995571320987, guid: b9c52bfaaaacf5f42bbbafd19d8f5b21,
        type: 3}
      propertyPath: SizeBySpeedModule.curve.maxCurve.m_Curve.Array.data[0].inSlope
      value: 0
      objectReference: {fileID: 0}
    - target: {fileID: 6415550995571320987, guid: b9c52bfaaaacf5f42bbbafd19d8f5b21,
        type: 3}
      propertyPath: SizeBySpeedModule.curve.maxCurve.m_Curve.Array.data[0].outSlope
      value: 0
      objectReference: {fileID: 0}
    - target: {fileID: 6415550995571320987, guid: b9c52bfaaaacf5f42bbbafd19d8f5b21,
        type: 3}
      propertyPath: SizeBySpeedModule.curve.maxCurve.m_Curve.Array.data[0].tangentMode
      value: 0
      objectReference: {fileID: 0}
    - target: {fileID: 6415550995571320987, guid: b9c52bfaaaacf5f42bbbafd19d8f5b21,
        type: 3}
      propertyPath: SizeBySpeedModule.curve.maxCurve.m_Curve.Array.data[0].inWeight
      value: 0
      objectReference: {fileID: 0}
    - target: {fileID: 6415550995571320987, guid: b9c52bfaaaacf5f42bbbafd19d8f5b21,
        type: 3}
      propertyPath: SizeBySpeedModule.curve.maxCurve.m_Curve.Array.data[0].outWeight
      value: 0
      objectReference: {fileID: 0}
    - target: {fileID: 6415550995571320987, guid: b9c52bfaaaacf5f42bbbafd19d8f5b21,
        type: 3}
      propertyPath: SizeBySpeedModule.curve.maxCurve.m_Curve.Array.data[1].value
      value: 1
      objectReference: {fileID: 0}
    - target: {fileID: 6415550995571320987, guid: b9c52bfaaaacf5f42bbbafd19d8f5b21,
        type: 3}
      propertyPath: SizeBySpeedModule.curve.maxCurve.m_Curve.Array.data[1].inSlope
      value: 0
      objectReference: {fileID: 0}
    - target: {fileID: 6415550995571320987, guid: b9c52bfaaaacf5f42bbbafd19d8f5b21,
        type: 3}
      propertyPath: SizeBySpeedModule.curve.maxCurve.m_Curve.Array.data[1].outSlope
      value: 0
      objectReference: {fileID: 0}
    - target: {fileID: 6415550995571320987, guid: b9c52bfaaaacf5f42bbbafd19d8f5b21,
        type: 3}
      propertyPath: SizeBySpeedModule.curve.maxCurve.m_Curve.Array.data[1].tangentMode
      value: 0
      objectReference: {fileID: 0}
    - target: {fileID: 6415550995571320987, guid: b9c52bfaaaacf5f42bbbafd19d8f5b21,
        type: 3}
      propertyPath: SizeBySpeedModule.curve.maxCurve.m_Curve.Array.data[1].inWeight
      value: 0
      objectReference: {fileID: 0}
    - target: {fileID: 6415550995571320987, guid: b9c52bfaaaacf5f42bbbafd19d8f5b21,
        type: 3}
      propertyPath: SizeBySpeedModule.curve.maxCurve.m_Curve.Array.data[1].outWeight
      value: 0
      objectReference: {fileID: 0}
    - target: {fileID: 6415550995571320987, guid: b9c52bfaaaacf5f42bbbafd19d8f5b21,
        type: 3}
      propertyPath: SizeBySpeedModule.range.x
      value: 0
      objectReference: {fileID: 0}
    - target: {fileID: 6415550995571320987, guid: b9c52bfaaaacf5f42bbbafd19d8f5b21,
        type: 3}
      propertyPath: SizeBySpeedModule.range.y
      value: 5
      objectReference: {fileID: 0}
    - target: {fileID: 6415550995571320987, guid: b9c52bfaaaacf5f42bbbafd19d8f5b21,
        type: 3}
      propertyPath: InitialModule.startLifetime.scalar
      value: 4
      objectReference: {fileID: 0}
    - target: {fileID: 6415550995571320987, guid: b9c52bfaaaacf5f42bbbafd19d8f5b21,
        type: 3}
      propertyPath: ColorBySpeedModule.enabled
      value: 0
      objectReference: {fileID: 0}
    - target: {fileID: 6415550995571320987, guid: b9c52bfaaaacf5f42bbbafd19d8f5b21,
        type: 3}
      propertyPath: ShapeModule.randomPositionAmount
      value: 0.7
      objectReference: {fileID: 0}
    - target: {fileID: 6415550995571320987, guid: b9c52bfaaaacf5f42bbbafd19d8f5b21,
        type: 3}
      propertyPath: ShapeModule.sphericalDirectionAmount
      value: 1
      objectReference: {fileID: 0}
    - target: {fileID: 6415550995571320987, guid: b9c52bfaaaacf5f42bbbafd19d8f5b21,
        type: 3}
      propertyPath: ShapeModule.randomDirectionAmount
      value: 0.2
      objectReference: {fileID: 0}
    - target: {fileID: 6415550995571320987, guid: b9c52bfaaaacf5f42bbbafd19d8f5b21,
        type: 3}
      propertyPath: ShapeModule.m_Position.y
      value: 0
      objectReference: {fileID: 0}
    - target: {fileID: 6415550995571320987, guid: b9c52bfaaaacf5f42bbbafd19d8f5b21,
        type: 3}
      propertyPath: ShapeModule.m_Position.z
      value: 0
      objectReference: {fileID: 0}
    - target: {fileID: 6415550995571320987, guid: b9c52bfaaaacf5f42bbbafd19d8f5b21,
        type: 3}
      propertyPath: ShapeModule.m_Rotation.x
      value: 0
      objectReference: {fileID: 0}
    - target: {fileID: 6415550995571320987, guid: b9c52bfaaaacf5f42bbbafd19d8f5b21,
        type: 3}
      propertyPath: ShapeModule.m_Scale.x
      value: 1
      objectReference: {fileID: 0}
    - target: {fileID: 6415550995571320987, guid: b9c52bfaaaacf5f42bbbafd19d8f5b21,
        type: 3}
      propertyPath: ShapeModule.m_Scale.y
      value: 1
      objectReference: {fileID: 0}
    - target: {fileID: 6415550995571320987, guid: b9c52bfaaaacf5f42bbbafd19d8f5b21,
        type: 3}
      propertyPath: ShapeModule.m_Scale.z
      value: 1
      objectReference: {fileID: 0}
    - target: {fileID: 6415550995571320987, guid: b9c52bfaaaacf5f42bbbafd19d8f5b21,
        type: 3}
      propertyPath: ShapeModule.enabled
      value: 1
      objectReference: {fileID: 0}
    - target: {fileID: 6415550995571320987, guid: b9c52bfaaaacf5f42bbbafd19d8f5b21,
        type: 3}
      propertyPath: NoiseModule.octaves
      value: 4
      objectReference: {fileID: 0}
    - target: {fileID: 6415550995571320987, guid: b9c52bfaaaacf5f42bbbafd19d8f5b21,
        type: 3}
      propertyPath: NoiseModule.octaveMultiplier
      value: 0.3
      objectReference: {fileID: 0}
    - target: {fileID: 8657158096917557661, guid: b9c52bfaaaacf5f42bbbafd19d8f5b21,
        type: 3}
      propertyPath: m_Materials.Array.data[0]
      value: 
      objectReference: {fileID: 10301, guid: 0000000000000000f000000000000000, type: 0}
    - target: {fileID: 8657158096917557661, guid: b9c52bfaaaacf5f42bbbafd19d8f5b21,
        type: 3}
      propertyPath: m_MaxParticleSize
      value: 0.05
      objectReference: {fileID: 0}
    - target: {fileID: 8657158096917557661, guid: b9c52bfaaaacf5f42bbbafd19d8f5b21,
        type: 3}
      propertyPath: m_MinParticleSize
      value: 0
      objectReference: {fileID: 0}
    - target: {fileID: 8657158096917557661, guid: b9c52bfaaaacf5f42bbbafd19d8f5b21,
        type: 3}
      propertyPath: m_RenderMode
      value: 0
      objectReference: {fileID: 0}
    - target: {fileID: 8657158096917557661, guid: b9c52bfaaaacf5f42bbbafd19d8f5b21,
        type: 3}
      propertyPath: m_Mesh
      value: 
      objectReference: {fileID: 10202, guid: 0000000000000000e000000000000000, type: 0}
    - target: {fileID: 8657158096917557661, guid: b9c52bfaaaacf5f42bbbafd19d8f5b21,
        type: 3}
      propertyPath: m_NormalDirection
      value: 1
      objectReference: {fileID: 0}
    - target: {fileID: 8657158096917557661, guid: b9c52bfaaaacf5f42bbbafd19d8f5b21,
        type: 3}
      propertyPath: m_SortingFudge
      value: 0
      objectReference: {fileID: 0}
    - target: {fileID: 8657158096917557661, guid: b9c52bfaaaacf5f42bbbafd19d8f5b21,
        type: 3}
      propertyPath: m_Flip.y
      value: 1
      objectReference: {fileID: 0}
    m_RemovedComponents: []
  m_SourcePrefab: {fileID: 100100000, guid: b9c52bfaaaacf5f42bbbafd19d8f5b21, type: 3}
