%YAML 1.1
%TAG !u! tag:unity3d.com,2011:
--- !u!1001 &7152811908228167872
PrefabInstance:
  m_ObjectHideFlags: 0
  serializedVersion: 2
  m_Modification:
    m_TransformParent: {fileID: 0}
    m_Modifications:
    - target: {fileID: 2377078445697983640, guid: d4547874e1e81c340b76d465cc299836,
        type: 3}
      propertyPath: m_Name
      value: Ptc_wavinglaser
      objectReference: {fileID: 0}
    - target: {fileID: 2377078445697983642, guid: d4547874e1e81c340b76d465cc299836,
        type: 3}
      propertyPath: NoiseModule.frequency
      value: 0.1
      objectReference: {fileID: 0}
    - target: {fileID: 2377078445697983642, guid: d4547874e1e81c340b76d465cc299836,
        type: 3}
      propertyPath: NoiseModule.strengthZ.scalar
      value: 5
      objectReference: {fileID: 0}
    - target: {fileID: 2377078445697983642, guid: d4547874e1e81c340b76d465cc299836,
        type: 3}
      propertyPath: NoiseModule.octaves
      value: 2
      objectReference: {fileID: 0}
    - target: {fileID: 2377078445697983642, guid: d4547874e1e81c340b76d465cc299836,
        type: 3}
      propertyPath: NoiseModule.scrollSpeed.scalar
      value: 0.5
      objectReference: {fileID: 0}
    - target: {fileID: 2377078445697983643, guid: d4547874e1e81c340b76d465cc299836,
        type: 3}
      propertyPath: m_LocalPosition.x
      value: 680.06
      objectReference: {fileID: 0}
    - target: {fileID: 2377078445697983643, guid: d4547874e1e81c340b76d465cc299836,
        type: 3}
      propertyPath: m_LocalPosition.y
      value: 31.1
      objectReference: {fileID: 0}
    - target: {fileID: 2377078445697983643, guid: d4547874e1e81c340b76d465cc299836,
        type: 3}
      propertyPath: m_LocalPosition.z
      value: 503.27
      objectReference: {fileID: 0}
    - target: {fileID: 2377078445697983643, guid: d4547874e1e81c340b76d465cc299836,
        type: 3}
      propertyPath: m_LocalRotation.x
      value: 0
      objectReference: {fileID: 0}
    - target: {fileID: 2377078445697983643, guid: d4547874e1e81c340b76d465cc299836,
        type: 3}
      propertyPath: m_LocalRotation.y
      value: 0
      objectReference: {fileID: 0}
    - target: {fileID: 2377078445697983643, guid: d4547874e1e81c340b76d465cc299836,
        type: 3}
      propertyPath: m_LocalRotation.z
      value: 0
      objectReference: {fileID: 0}
    - target: {fileID: 2377078445697983643, guid: d4547874e1e81c340b76d465cc299836,
        type: 3}
      propertyPath: m_LocalRotation.w
      value: 1
      objectReference: {fileID: 0}
    - target: {fileID: 2377078445697983643, guid: d4547874e1e81c340b76d465cc299836,
        type: 3}
      propertyPath: m_RootOrder
      value: 0
      objectReference: {fileID: 0}
    - target: {fileID: 2377078445697983643, guid: d4547874e1e81c340b76d465cc299836,
        type: 3}
      propertyPath: m_LocalEulerAnglesHint.x
      value: 0
      objectReference: {fileID: 0}
    - target: {fileID: 2377078445697983643, guid: d4547874e1e81c340b76d465cc299836,
        type: 3}
      propertyPath: m_LocalEulerAnglesHint.y
      value: 0
      objectReference: {fileID: 0}
    - target: {fileID: 2377078445697983643, guid: d4547874e1e81c340b76d465cc299836,
        type: 3}
      propertyPath: m_LocalEulerAnglesHint.z
      value: 0
      objectReference: {fileID: 0}
    m_RemovedComponents: []
  m_SourcePrefab: {fileID: 100100000, guid: d4547874e1e81c340b76d465cc299836, type: 3}
