%YAML 1.1
%TAG !u! tag:unity3d.com,2011:
--- !u!1001 &4305645684305205724
PrefabInstance:
  m_ObjectHideFlags: 0
  serializedVersion: 2
  m_Modification:
    m_TransformParent: {fileID: 0}
    m_Modifications:
    - target: {fileID: 2857143756919641850, guid: 7c288d3051fbcf6439a1542faeea2fed,
        type: 3}
      propertyPath: m_Name
      value: Ptc_Snow
      objectReference: {fileID: 0}
    - target: {fileID: 4892279856535857217, guid: 7c288d3051fbcf6439a1542faeea2fed,
        type: 3}
      propertyPath: m_Enabled
      value: 1
      objectReference: {fileID: 0}
    - target: {fileID: 7117979152994152775, guid: 7c288d3051fbcf6439a1542faeea2fed,
        type: 3}
      propertyPath: VelocityModule.y.scalar
      value: 0
      objectReference: {fileID: 0}
    - target: {fileID: 7117979152994152775, guid: 7c288d3051fbcf6439a1542faeea2fed,
        type: 3}
      propertyPath: VelocityModule.x.scalar
      value: 0
      objectReference: {fileID: 0}
    - target: {fileID: 7117979152994152775, guid: 7c288d3051fbcf6439a1542faeea2fed,
        type: 3}
      propertyPath: VelocityModule.z.scalar
      value: 0
      objectReference: {fileID: 0}
    - target: {fileID: 7117979152994152775, guid: 7c288d3051fbcf6439a1542faeea2fed,
        type: 3}
      propertyPath: VelocityModule.orbitalX.scalar
      value: 0
      objectReference: {fileID: 0}
    - target: {fileID: 7117979152994152775, guid: 7c288d3051fbcf6439a1542faeea2fed,
        type: 3}
      propertyPath: VelocityModule.orbitalY.scalar
      value: 0
      objectReference: {fileID: 0}
    - target: {fileID: 7117979152994152775, guid: 7c288d3051fbcf6439a1542faeea2fed,
        type: 3}
      propertyPath: VelocityModule.orbitalZ.scalar
      value: 0
      objectReference: {fileID: 0}
    - target: {fileID: 7117979152994152775, guid: 7c288d3051fbcf6439a1542faeea2fed,
        type: 3}
      propertyPath: VelocityModule.orbitalOffsetX.scalar
      value: 0
      objectReference: {fileID: 0}
    - target: {fileID: 7117979152994152775, guid: 7c288d3051fbcf6439a1542faeea2fed,
        type: 3}
      propertyPath: VelocityModule.orbitalOffsetY.scalar
      value: 0
      objectReference: {fileID: 0}
    - target: {fileID: 7117979152994152775, guid: 7c288d3051fbcf6439a1542faeea2fed,
        type: 3}
      propertyPath: VelocityModule.orbitalOffsetZ.scalar
      value: 0
      objectReference: {fileID: 0}
    - target: {fileID: 7117979152994152775, guid: 7c288d3051fbcf6439a1542faeea2fed,
        type: 3}
      propertyPath: VelocityModule.radial.scalar
      value: 0
      objectReference: {fileID: 0}
    - target: {fileID: 7117979152994152775, guid: 7c288d3051fbcf6439a1542faeea2fed,
        type: 3}
      propertyPath: VelocityModule.speedModifier.scalar
      value: 1
      objectReference: {fileID: 0}
    - target: {fileID: 7117979152994152775, guid: 7c288d3051fbcf6439a1542faeea2fed,
        type: 3}
      propertyPath: ForceModule.enabled
      value: 0
      objectReference: {fileID: 0}
    - target: {fileID: 7117979152994152775, guid: 7c288d3051fbcf6439a1542faeea2fed,
        type: 3}
      propertyPath: SizeModule.enabled
      value: 1
      objectReference: {fileID: 0}
    - target: {fileID: 7117979152994152775, guid: 7c288d3051fbcf6439a1542faeea2fed,
        type: 3}
      propertyPath: SizeModule.curve.maxCurve.m_Curve.Array.data[0].value
      value: 1
      objectReference: {fileID: 0}
    - target: {fileID: 7117979152994152775, guid: 7c288d3051fbcf6439a1542faeea2fed,
        type: 3}
      propertyPath: SizeModule.curve.maxCurve.m_Curve.Array.data[0].outSlope
      value: -2
      objectReference: {fileID: 0}
    - target: {fileID: 7117979152994152775, guid: 7c288d3051fbcf6439a1542faeea2fed,
        type: 3}
      propertyPath: SizeModule.curve.maxCurve.m_Curve.Array.data[1].outSlope
      value: 0
      objectReference: {fileID: 0}
    - target: {fileID: 7117979152994152775, guid: 7c288d3051fbcf6439a1542faeea2fed,
        type: 3}
      propertyPath: SizeModule.curve.maxCurve.m_Curve.Array.data[1].value
      value: 0
      objectReference: {fileID: 0}
    - target: {fileID: 7117979152994152775, guid: 7c288d3051fbcf6439a1542faeea2fed,
        type: 3}
      propertyPath: SizeModule.curve.maxCurve.m_Curve.Array.data[1].inSlope
      value: 0
      objectReference: {fileID: 0}
    - target: {fileID: 7117979152994152775, guid: 7c288d3051fbcf6439a1542faeea2fed,
        type: 3}
      propertyPath: SizeModule.curve.maxCurve.m_Curve.Array.data[1].inWeight
      value: 0
      objectReference: {fileID: 0}
    - target: {fileID: 7117979152994152775, guid: 7c288d3051fbcf6439a1542faeea2fed,
        type: 3}
      propertyPath: SizeModule.curve.maxCurve.m_Curve.Array.data[0].inSlope
      value: -2
      objectReference: {fileID: 0}
    - target: {fileID: 7117979152994152775, guid: 7c288d3051fbcf6439a1542faeea2fed,
        type: 3}
      propertyPath: SizeModule.curve.maxCurve.m_Curve.Array.data[0].outWeight
      value: 0
      objectReference: {fileID: 0}
    - target: {fileID: 7117979152994152775, guid: 7c288d3051fbcf6439a1542faeea2fed,
        type: 3}
      propertyPath: SizeBySpeedModule.enabled
      value: 0
      objectReference: {fileID: 0}
    - target: {fileID: 7117979152994152775, guid: 7c288d3051fbcf6439a1542faeea2fed,
        type: 3}
      propertyPath: NoiseModule.enabled
      value: 1
      objectReference: {fileID: 0}
    - target: {fileID: 7117979152994152775, guid: 7c288d3051fbcf6439a1542faeea2fed,
        type: 3}
      propertyPath: ExternalForcesModule.enabled
      value: 0
      objectReference: {fileID: 0}
    - target: {fileID: 7117979152994152775, guid: 7c288d3051fbcf6439a1542faeea2fed,
        type: 3}
      propertyPath: CollisionModule.enabled
      value: 0
      objectReference: {fileID: 0}
    - target: {fileID: 7117979152994152775, guid: 7c288d3051fbcf6439a1542faeea2fed,
        type: 3}
      propertyPath: ShapeModule.enabled
      value: 1
      objectReference: {fileID: 0}
    - target: {fileID: 7117979152994152775, guid: 7c288d3051fbcf6439a1542faeea2fed,
        type: 3}
      propertyPath: ColorModule.enabled
      value: 0
      objectReference: {fileID: 0}
    - target: {fileID: 7117979152994152775, guid: 7c288d3051fbcf6439a1542faeea2fed,
        type: 3}
      propertyPath: InitialModule.startColor.maxColor.r
      value: 1
      objectReference: {fileID: 0}
    - target: {fileID: 7117979152994152775, guid: 7c288d3051fbcf6439a1542faeea2fed,
        type: 3}
      propertyPath: InitialModule.startColor.maxColor.g
      value: 1
      objectReference: {fileID: 0}
    - target: {fileID: 7117979152994152775, guid: 7c288d3051fbcf6439a1542faeea2fed,
        type: 3}
      propertyPath: InitialModule.startColor.maxColor.b
      value: 1
      objectReference: {fileID: 0}
    - target: {fileID: 7117979152994152775, guid: 7c288d3051fbcf6439a1542faeea2fed,
        type: 3}
      propertyPath: InitialModule.startSize.scalar
      value: 0.3
      objectReference: {fileID: 0}
    - target: {fileID: 7117979152994152775, guid: 7c288d3051fbcf6439a1542faeea2fed,
        type: 3}
      propertyPath: ShapeModule.type
      value: 18
      objectReference: {fileID: 0}
    - target: {fileID: 7117979152994152775, guid: 7c288d3051fbcf6439a1542faeea2fed,
        type: 3}
      propertyPath: ShapeModule.m_Scale.x
      value: 3
      objectReference: {fileID: 0}
    - target: {fileID: 7117979152994152775, guid: 7c288d3051fbcf6439a1542faeea2fed,
        type: 3}
      propertyPath: ShapeModule.m_Scale.y
      value: 3
      objectReference: {fileID: 0}
    - target: {fileID: 7117979152994152775, guid: 7c288d3051fbcf6439a1542faeea2fed,
        type: 3}
      propertyPath: ShapeModule.m_Scale.z
      value: 3
      objectReference: {fileID: 0}
    - target: {fileID: 7117979152994152775, guid: 7c288d3051fbcf6439a1542faeea2fed,
        type: 3}
      propertyPath: VelocityModule.enabled
      value: 0
      objectReference: {fileID: 0}
    - target: {fileID: 7117979152994152775, guid: 7c288d3051fbcf6439a1542faeea2fed,
        type: 3}
      propertyPath: simulationSpeed
      value: 1
      objectReference: {fileID: 0}
    - target: {fileID: 7117979152994152775, guid: 7c288d3051fbcf6439a1542faeea2fed,
        type: 3}
      propertyPath: InitialModule.startSpeed.scalar
      value: 0.5
      objectReference: {fileID: 0}
    - target: {fileID: 7117979152994152775, guid: 7c288d3051fbcf6439a1542faeea2fed,
        type: 3}
      propertyPath: InitialModule.startLifetime.scalar
      value: 3
      objectReference: {fileID: 0}
    - target: {fileID: 7117979152994152775, guid: 7c288d3051fbcf6439a1542faeea2fed,
        type: 3}
      propertyPath: ShapeModule.randomDirectionAmount
      value: 0.2
      objectReference: {fileID: 0}
    - target: {fileID: 7117979152994152775, guid: 7c288d3051fbcf6439a1542faeea2fed,
        type: 3}
      propertyPath: ShapeModule.sphericalDirectionAmount
      value: 0
      objectReference: {fileID: 0}
    - target: {fileID: 7117979152994152775, guid: 7c288d3051fbcf6439a1542faeea2fed,
        type: 3}
      propertyPath: ShapeModule.randomPositionAmount
      value: 0.5
      objectReference: {fileID: 0}
    - target: {fileID: 7117979152994152775, guid: 7c288d3051fbcf6439a1542faeea2fed,
        type: 3}
      propertyPath: SizeModule.curve.maxCurve.m_Curve.Array.data[1].time
      value: 1
      objectReference: {fileID: 0}
    - target: {fileID: 7117979152994152775, guid: 7c288d3051fbcf6439a1542faeea2fed,
        type: 3}
      propertyPath: SizeModule.curve.maxCurve.m_Curve.Array.data[0].tangentMode
      value: 0
      objectReference: {fileID: 0}
    - target: {fileID: 7117979152994152775, guid: 7c288d3051fbcf6439a1542faeea2fed,
        type: 3}
      propertyPath: SizeModule.curve.maxCurve.m_Curve.Array.data[0].inWeight
      value: 0
      objectReference: {fileID: 0}
    - target: {fileID: 7117979152994152775, guid: 7c288d3051fbcf6439a1542faeea2fed,
        type: 3}
      propertyPath: SizeModule.curve.maxCurve.m_Curve.Array.data[1].tangentMode
      value: 0
      objectReference: {fileID: 0}
    - target: {fileID: 7117979152994152775, guid: 7c288d3051fbcf6439a1542faeea2fed,
        type: 3}
      propertyPath: SizeModule.curve.maxCurve.m_Curve.Array.data[1].outWeight
      value: 0
      objectReference: {fileID: 0}
    - target: {fileID: 7117979152994152775, guid: 7c288d3051fbcf6439a1542faeea2fed,
        type: 3}
      propertyPath: ShapeModule.m_Position.y
      value: -0.0000025667196
      objectReference: {fileID: 0}
    - target: {fileID: 7117979152994152775, guid: 7c288d3051fbcf6439a1542faeea2fed,
        type: 3}
      propertyPath: ShapeModule.m_Position.z
      value: 0.22777641
      objectReference: {fileID: 0}
    - target: {fileID: 7117979152994152775, guid: 7c288d3051fbcf6439a1542faeea2fed,
        type: 3}
      propertyPath: ShapeModule.m_Rotation.x
      value: 0.0001255715
      objectReference: {fileID: 0}
    - target: {fileID: 7117979152994152775, guid: 7c288d3051fbcf6439a1542faeea2fed,
        type: 3}
      propertyPath: startDelay.scalar
      value: 0
      objectReference: {fileID: 0}
    - target: {fileID: 7117979152994152775, guid: 7c288d3051fbcf6439a1542faeea2fed,
        type: 3}
      propertyPath: EmissionModule.rateOverTime.scalar
      value: 25
      objectReference: {fileID: 0}
    - target: {fileID: 7117979152994152775, guid: 7c288d3051fbcf6439a1542faeea2fed,
        type: 3}
      propertyPath: ShapeModule.alignToDirection
      value: 0
      objectReference: {fileID: 0}
    - target: {fileID: 7117979152994152775, guid: 7c288d3051fbcf6439a1542faeea2fed,
        type: 3}
      propertyPath: ClampVelocityModule.enabled
      value: 0
      objectReference: {fileID: 0}
    - target: {fileID: 7117979152994152775, guid: 7c288d3051fbcf6439a1542faeea2fed,
        type: 3}
      propertyPath: InheritVelocityModule.enabled
      value: 0
      objectReference: {fileID: 0}
    - target: {fileID: 7117979152994152775, guid: 7c288d3051fbcf6439a1542faeea2fed,
        type: 3}
      propertyPath: NoiseModule.damping
      value: 0
      objectReference: {fileID: 0}
    - target: {fileID: 7117979152994152775, guid: 7c288d3051fbcf6439a1542faeea2fed,
        type: 3}
      propertyPath: NoiseModule.frequency
      value: 0.6
      objectReference: {fileID: 0}
    - target: {fileID: 7117979152994152775, guid: 7c288d3051fbcf6439a1542faeea2fed,
        type: 3}
      propertyPath: NoiseModule.separateAxes
      value: 1
      objectReference: {fileID: 0}
    - target: {fileID: 7117979152994152775, guid: 7c288d3051fbcf6439a1542faeea2fed,
        type: 3}
      propertyPath: NoiseModule.strength.scalar
      value: 0
      objectReference: {fileID: 0}
    - target: {fileID: 7117979152994152775, guid: 7c288d3051fbcf6439a1542faeea2fed,
        type: 3}
      propertyPath: NoiseModule.strengthZ.scalar
      value: 0
      objectReference: {fileID: 0}
    - target: {fileID: 7117979152994152775, guid: 7c288d3051fbcf6439a1542faeea2fed,
        type: 3}
      propertyPath: ShapeModule.radiusThickness
      value: 1
      objectReference: {fileID: 0}
    - target: {fileID: 9131284342035630645, guid: 7c288d3051fbcf6439a1542faeea2fed,
        type: 3}
      propertyPath: m_LocalPosition.x
      value: 681.1253
      objectReference: {fileID: 0}
    - target: {fileID: 9131284342035630645, guid: 7c288d3051fbcf6439a1542faeea2fed,
        type: 3}
      propertyPath: m_LocalPosition.y
      value: 30.489
      objectReference: {fileID: 0}
    - target: {fileID: 9131284342035630645, guid: 7c288d3051fbcf6439a1542faeea2fed,
        type: 3}
      propertyPath: m_LocalPosition.z
      value: 503.27
      objectReference: {fileID: 0}
    - target: {fileID: 9131284342035630645, guid: 7c288d3051fbcf6439a1542faeea2fed,
        type: 3}
      propertyPath: m_LocalRotation.x
      value: -0.7071068
      objectReference: {fileID: 0}
    - target: {fileID: 9131284342035630645, guid: 7c288d3051fbcf6439a1542faeea2fed,
        type: 3}
      propertyPath: m_LocalRotation.y
      value: 0
      objectReference: {fileID: 0}
    - target: {fileID: 9131284342035630645, guid: 7c288d3051fbcf6439a1542faeea2fed,
        type: 3}
      propertyPath: m_LocalRotation.z
      value: 0
      objectReference: {fileID: 0}
    - target: {fileID: 9131284342035630645, guid: 7c288d3051fbcf6439a1542faeea2fed,
        type: 3}
      propertyPath: m_LocalRotation.w
      value: -0.7071068
      objectReference: {fileID: 0}
    - target: {fileID: 9131284342035630645, guid: 7c288d3051fbcf6439a1542faeea2fed,
        type: 3}
      propertyPath: m_RootOrder
      value: 0
      objectReference: {fileID: 0}
    - target: {fileID: 9131284342035630645, guid: 7c288d3051fbcf6439a1542faeea2fed,
        type: 3}
      propertyPath: m_LocalEulerAnglesHint.x
      value: -270
      objectReference: {fileID: 0}
    - target: {fileID: 9131284342035630645, guid: 7c288d3051fbcf6439a1542faeea2fed,
        type: 3}
      propertyPath: m_LocalEulerAnglesHint.y
      value: 0
      objectReference: {fileID: 0}
    - target: {fileID: 9131284342035630645, guid: 7c288d3051fbcf6439a1542faeea2fed,
        type: 3}
      propertyPath: m_LocalEulerAnglesHint.z
      value: 0
      objectReference: {fileID: 0}
    m_RemovedComponents: []
  m_SourcePrefab: {fileID: 100100000, guid: 7c288d3051fbcf6439a1542faeea2fed, type: 3}
