{
    "name": "Armory",
    "references": [
        "GUID:693c8c61a01178442b8be592159d4438",
        "GUID:0318dbea709164c4e939bbf8fe5feba0"
    ],
    "includePlatforms": [],
    "excludePlatforms": [],
    "allowUnsafeCode": false,
    "overrideReferences": false,
    "precompiledReferences": [],
    "autoReferenced": true,
    "defineConstraints": [],
    "versionDefines": [],
    "noEngineReferences": false
}