%YAML 1.1
%TAG !u! tag:unity3d.com,2011:
--- !u!1 &3337249721805355107
GameObject:
  m_ObjectHideFlags: 0
  m_CorrespondingSourceObject: {fileID: 0}
  m_PrefabInstance: {fileID: 0}
  m_PrefabAsset: {fileID: 0}
  serializedVersion: 6
  m_Component:
  - component: {fileID: 3337249721805355106}
  m_Layer: 0
  m_Name: SpawnerList
  m_TagString: Untagged
  m_Icon: {fileID: 0}
  m_NavMeshLayer: 0
  m_StaticEditorFlags: 0
  m_IsActive: 1
--- !u!4 &3337249721805355106
Transform:
  m_ObjectHideFlags: 0
  m_CorrespondingSourceObject: {fileID: 0}
  m_PrefabInstance: {fileID: 0}
  m_PrefabAsset: {fileID: 0}
  m_GameObject: {fileID: 3337249721805355107}
  m_LocalRotation: {x: 0, y: 0, z: 0, w: 1}
  m_LocalPosition: {x: 764.94006, y: 34.700397, z: 578}
  m_LocalScale: {x: 1, y: 1, z: 1}
  m_Children:
  - {fileID: 690294060654595320}
  m_Father: {fileID: 0}
  m_RootOrder: 0
  m_LocalEulerAnglesHint: {x: 0, y: 0, z: 0}
--- !u!1001 &3337249721061603611
PrefabInstance:
  m_ObjectHideFlags: 0
  serializedVersion: 2
  m_Modification:
    m_TransformParent: {fileID: 3337249721805355106}
    m_Modifications:
    - target: {fileID: 2060147523558461518, guid: 72c90e103c0534d4fa6718af25c2ff87,
        type: 3}
      propertyPath: m_Name
      value: Spawner
      objectReference: {fileID: 0}
    - target: {fileID: 2865450700241171939, guid: 72c90e103c0534d4fa6718af25c2ff87,
        type: 3}
      propertyPath: m_LocalPosition.x
      value: -3.9299927
      objectReference: {fileID: 0}
    - target: {fileID: 2865450700241171939, guid: 72c90e103c0534d4fa6718af25c2ff87,
        type: 3}
      propertyPath: m_LocalPosition.y
      value: -4.880001
      objectReference: {fileID: 0}
    - target: {fileID: 2865450700241171939, guid: 72c90e103c0534d4fa6718af25c2ff87,
        type: 3}
      propertyPath: m_LocalPosition.z
      value: 3.9186401
      objectReference: {fileID: 0}
    - target: {fileID: 2865450700241171939, guid: 72c90e103c0534d4fa6718af25c2ff87,
        type: 3}
      propertyPath: m_LocalRotation.x
      value: -0
      objectReference: {fileID: 0}
    - target: {fileID: 2865450700241171939, guid: 72c90e103c0534d4fa6718af25c2ff87,
        type: 3}
      propertyPath: m_LocalRotation.y
      value: -0
      objectReference: {fileID: 0}
    - target: {fileID: 2865450700241171939, guid: 72c90e103c0534d4fa6718af25c2ff87,
        type: 3}
      propertyPath: m_LocalRotation.z
      value: -0
      objectReference: {fileID: 0}
    - target: {fileID: 2865450700241171939, guid: 72c90e103c0534d4fa6718af25c2ff87,
        type: 3}
      propertyPath: m_LocalRotation.w
      value: 1
      objectReference: {fileID: 0}
    - target: {fileID: 2865450700241171939, guid: 72c90e103c0534d4fa6718af25c2ff87,
        type: 3}
      propertyPath: m_RootOrder
      value: 0
      objectReference: {fileID: 0}
    - target: {fileID: 2865450700241171939, guid: 72c90e103c0534d4fa6718af25c2ff87,
        type: 3}
      propertyPath: m_LocalEulerAnglesHint.x
      value: 0
      objectReference: {fileID: 0}
    - target: {fileID: 2865450700241171939, guid: 72c90e103c0534d4fa6718af25c2ff87,
        type: 3}
      propertyPath: m_LocalEulerAnglesHint.y
      value: 0
      objectReference: {fileID: 0}
    - target: {fileID: 2865450700241171939, guid: 72c90e103c0534d4fa6718af25c2ff87,
        type: 3}
      propertyPath: m_LocalEulerAnglesHint.z
      value: 0
      objectReference: {fileID: 0}
    - target: {fileID: 4102580921539048231, guid: 72c90e103c0534d4fa6718af25c2ff87,
        type: 3}
      propertyPath: poolwrapper
      value: 
      objectReference: {fileID: 0}
    m_RemovedComponents: []
  m_SourcePrefab: {fileID: 100100000, guid: 72c90e103c0534d4fa6718af25c2ff87, type: 3}
--- !u!4 &690294060654595320 stripped
Transform:
  m_CorrespondingSourceObject: {fileID: 2865450700241171939, guid: 72c90e103c0534d4fa6718af25c2ff87,
    type: 3}
  m_PrefabInstance: {fileID: 3337249721061603611}
  m_PrefabAsset: {fileID: 0}
